Change Component Footprint: Designator=LED1 Old Footprint= New Footprint=*LED_XPGDWT-B1-0000-00LE1_XPGDWT-B1-0000-00LE1(Primary)
Change Component Footprint: Designator=LED2 Old Footprint= New Footprint=*LED_XPGDWT-B1-0000-00LE1_XPGDWT-B1-0000-00LE1(Primary)
Change Component Footprint: Designator=LED3 Old Footprint= New Footprint=*LED_XPGDWT-B1-0000-00LE1_XPGDWT-B1-0000-00LE1(Primary)
Change Component Footprint: Designator=IR1 Old Footprint= New Footprint=SFH4780S
Change Component Footprint: Designator=IR2 Old Footprint= New Footprint=SFH4780S
Change Component Footprint: Designator=IC2 Old Footprint= New Footprint=SOP65P490X110-9N
Change Component Footprint: Designator=IC4 Old Footprint= New Footprint=SOP65P490X110-9N
Change Component Designator: OldDesignator=+ NewDesignator=VPACK+1
Change Component Designator: OldDesignator=- NewDesignator=GND1
Change Component Description : Designator=LED1 Old Description=LED Lighting Xlamp® XP-G3 White, Cool 6500K 2.73V 350mA 125° 1414 _3535 Metric_ New Description=
LED Lighting Xlamp® XP-G3 White, Cool 6500K 2.73V 350mA 125° 1414 _3535 Metric_

Change Component Description : Designator=LED2 Old Description=LED Lighting Xlamp® XP-G3 White, Cool 6500K 2.73V 350mA 125° 1414 _3535 Metric_ New Description=
LED Lighting Xlamp® XP-G3 White, Cool 6500K 2.73V 350mA 125° 1414 _3535 Metric_

Change Component Description : Designator=LED3 Old Description=LED Lighting Xlamp® XP-G3 White, Cool 6500K 2.73V 350mA 125° 1414 _3535 Metric_ New Description=
LED Lighting Xlamp® XP-G3 White, Cool 6500K 2.73V 350mA 125° 1414 _3535 Metric_

Added Pin To Net: NetName=BAT_SCL Pin=IC3-6
Added Net: Name=BAT_SCL
Added Pin To Net: NetName=BAT_SDA Pin=IC3-7
Added Net: Name=BAT_SDA
Added Pin To Net: NetName=GND Pin=C1-1
Added Pin To Net: NetName=GND Pin=C2-1
Added Pin To Net: NetName=GND Pin=C3-1
Added Pin To Net: NetName=GND Pin=C4-2
Added Pin To Net: NetName=GND Pin=C5-2
Added Pin To Net: NetName=GND Pin=IC1-2
Added Pin To Net: NetName=GND Pin=IC2-2
Added Pin To Net: NetName=GND Pin=IC2-3
Added Pin To Net: NetName=GND Pin=IC2-9
Added Pin To Net: NetName=GND Pin=IC2-9
Added Pin To Net: NetName=GND Pin=IC2-9
Added Pin To Net: NetName=GND Pin=IC2-9
Added Pin To Net: NetName=GND Pin=IC2-9
Added Pin To Net: NetName=GND Pin=IC2-9
Added Pin To Net: NetName=GND Pin=IC3-4
Added Pin To Net: NetName=GND Pin=IC4-2
Added Pin To Net: NetName=GND Pin=IC4-3
Added Pin To Net: NetName=GND Pin=IC4-9
Added Pin To Net: NetName=GND Pin=IC4-9
Added Pin To Net: NetName=GND Pin=IC4-9
Added Pin To Net: NetName=GND Pin=IC4-9
Added Pin To Net: NetName=GND Pin=IC4-9
Added Pin To Net: NetName=GND Pin=IC4-9
Added Pin To Net: NetName=GND Pin=LED1-EP
Added Pin To Net: NetName=GND Pin=LED2-EP
Added Pin To Net: NetName=GND Pin=LED3-EP
Added Net: Name=GND
Added Pin To Net: NetName=IR_NEG Pin=IR2-1
Added Pin To Net: NetName=IR_NEG Pin=L1-2
Added Net: Name=IR_NEG
Added Pin To Net: NetName=IR_POS Pin=IC2-1
Added Pin To Net: NetName=IR_POS Pin=IR1-2
Added Pin To Net: NetName=IR_POS Pin=IR1-3
Added Pin To Net: NetName=IR_POS Pin=IR1-3
Added Pin To Net: NetName=IR_POS Pin=IR1-3
Added Pin To Net: NetName=IR_POS Pin=IR1-3
Added Pin To Net: NetName=IR_POS Pin=IR1-3
Added Pin To Net: NetName=IR_POS Pin=IR1-3
Added Pin To Net: NetName=IR_POS Pin=IR1-3
Added Pin To Net: NetName=IR_POS Pin=R2-1
Added Net: Name=IR_POS
Added Pin To Net: NetName=IRDIM Pin=IC2-4
Added Pin To Net: NetName=IRDIM Pin=IC3-3
Added Pin To Net: NetName=IRDIM Pin=R4-1
Added Net: Name=IRDIM
Added Pin To Net: NetName=NetC1_2 Pin=C1-2
Added Pin To Net: NetName=NetC1_2 Pin=IC1-1
Added Pin To Net: NetName=NetC1_2 Pin=R1-1
Added Net: Name=NetC1_2
Added Pin To Net: NetName=NetD1_2 Pin=D1-2
Added Pin To Net: NetName=NetD1_2 Pin=IC2-5
Added Pin To Net: NetName=NetD1_2 Pin=IC2-6
Added Pin To Net: NetName=NetD1_2 Pin=L1-1
Added Net: Name=NetD1_2
Added Pin To Net: NetName=NetD2_2 Pin=D2-2
Added Pin To Net: NetName=NetD2_2 Pin=IC4-5
Added Pin To Net: NetName=NetD2_2 Pin=IC4-6
Added Pin To Net: NetName=NetD2_2 Pin=L2-1
Added Net: Name=NetD2_2
Added Pin To Net: NetName=NetIC3_1 Pin=IC3-1
Added Pin To Net: NetName=NetIC3_1 Pin=R3-1
Added Net: Name=NetIC3_1
Added Pin To Net: NetName=NetIC3_5 Pin=IC3-5
Added Pin To Net: NetName=NetIC3_5 Pin=R6-2
Added Net: Name=NetIC3_5
Added Pin To Net: NetName=NetIC4_1 Pin=IC4-1
Added Pin To Net: NetName=NetIC4_1 Pin=LED1-A
Added Pin To Net: NetName=NetIC4_1 Pin=R7-1
Added Net: Name=NetIC4_1
Added Pin To Net: NetName=NetIR1_1 Pin=IR1-1
Added Pin To Net: NetName=NetIR1_1 Pin=IR2-2
Added Pin To Net: NetName=NetIR1_1 Pin=IR2-3
Added Pin To Net: NetName=NetIR1_1 Pin=IR2-3
Added Pin To Net: NetName=NetIR1_1 Pin=IR2-3
Added Pin To Net: NetName=NetIR1_1 Pin=IR2-3
Added Pin To Net: NetName=NetIR1_1 Pin=IR2-3
Added Pin To Net: NetName=NetIR1_1 Pin=IR2-3
Added Pin To Net: NetName=NetIR1_1 Pin=IR2-3
Added Net: Name=NetIR1_1
Added Pin To Net: NetName=NetL2_2 Pin=L2-2
Added Pin To Net: NetName=NetL2_2 Pin=LED3-C
Added Net: Name=NetL2_2
Added Pin To Net: NetName=NetLED1_C Pin=LED1-C
Added Pin To Net: NetName=NetLED1_C Pin=LED2-A
Added Net: Name=NetLED1_C
Added Pin To Net: NetName=NetLED2_C Pin=LED2-C
Added Pin To Net: NetName=NetLED2_C Pin=LED3-A
Added Net: Name=NetLED2_C
Added Pin To Net: NetName=VCC Pin=C2-2
Added Pin To Net: NetName=VCC Pin=C3-2
Added Pin To Net: NetName=VCC Pin=IC1-5
Added Pin To Net: NetName=VCC Pin=IC3-8
Added Pin To Net: NetName=VCC Pin=R3-2
Added Pin To Net: NetName=VCC Pin=R4-2
Added Pin To Net: NetName=VCC Pin=R5-2
Added Pin To Net: NetName=VCC Pin=R6-1
Added Net: Name=VCC
Added Pin To Net: NetName=VPACK+ Pin=C4-1
Added Pin To Net: NetName=VPACK+ Pin=C5-1
Added Pin To Net: NetName=VPACK+ Pin=D1-1
Added Pin To Net: NetName=VPACK+ Pin=D2-1
Added Pin To Net: NetName=VPACK+ Pin=IC2-8
Added Pin To Net: NetName=VPACK+ Pin=IC4-8
Added Pin To Net: NetName=VPACK+ Pin=R1-2
Added Pin To Net: NetName=VPACK+ Pin=R2-2
Added Pin To Net: NetName=VPACK+ Pin=R7-2
Added Net: Name=VPACK+
Added Pin To Net: NetName=WDIM Pin=IC3-2
Added Pin To Net: NetName=WDIM Pin=IC4-4
Added Pin To Net: NetName=WDIM Pin=R5-1
Added Net: Name=WDIM
Added Member To Class: ClassName=led control circuit Member=Component IC2 AL8860MP-13
Added Member To Class: ClassName=led control circuit Member=Component R6 10K 5% 0201(0603)
