Removed Pin From Net: NetName=VPACK+ Pin=D?-1
Change Component Designator: OldDesignator=C? NewDesignator=C1
Change Component Designator: OldDesignator=C? NewDesignator=C2
Change Component Designator: OldDesignator=D2 NewDesignator=LED2
Change Component Designator: OldDesignator=D? NewDesignator=D1
Change Component Designator: OldDesignator=D? NewDesignator=D2
Change Component Designator: OldDesignator=D? NewDesignator=LED1
Change Component Designator: OldDesignator=D? NewDesignator=LED3
Change Component Designator: OldDesignator=IC1 NewDesignator=IC2
Change Component Designator: OldDesignator=IC2 NewDesignator=IC1
Change Component Designator: OldDesignator=L? NewDesignator=L1
Change Component Designator: OldDesignator=L? NewDesignator=L2
Change Component Designator: OldDesignator=R? NewDesignator=R1
Change Component Designator: OldDesignator=R? NewDesignator=R2
Change Component Designator: OldDesignator=R? NewDesignator=R3
Change Component Designator: OldDesignator=Ros? NewDesignator=Ros1
Added Component: Designator=D6(SOD2512X110N)
Add component. Clean all parameters for all variants
Add component (AddParameter): Name = "Datasheet Link"; Value = "https://componentsearchengine.com/Datasheets/1/PMEG2020AEA,115.pdf"; VariantName = "[No Variations]"
Add component (AddParameter): Name = "Height"; Value = "1.1mm"; VariantName = "[No Variations]"
Add component (AddParameter): Name = "Manufacturer_Name"; Value = "Nexperia"; VariantName = "[No Variations]"
Add component (AddParameter): Name = "Manufacturer_Part_Number"; Value = "PMEG2020AEA,115"; VariantName = "[No Variations]"
Add component (AddParameter): Name = "Mouser Part Number"; Value = "771-PMEG2020AEA-T/R"; VariantName = "[No Variations]"
Add component (AddParameter): Name = "Mouser Price/Stock"; Value = "https://www.mouser.com/Search/Refine.aspx?Keyword=771-PMEG2020AEA-T%2FR"; VariantName = "[No Variations]"
Add component (AddParameter): Name = "RS Part Number"; Value = "0485735P"; VariantName = "[No Variations]"
Add component (AddParameter): Name = "RS Price/Stock"; Value = "http://uk.rs-online.com/web/p/products/0485735P"; VariantName = "[No Variations]"
Added Pin To Net: NetName=VPACK+ Pin=D6-1
Added Pin To Net: NetName=NetD?_2 Pin=IC2-6
Change Net Name : Old Net Name=NetD2_2 New Net Name=NetD1_2
Change Net Name : Old Net Name=NetD?_2 New Net Name=NetD2_2
Change Net Name : Old Net Name=NetD?_A New Net Name=NetLED1_C
Change Net Name : Old Net Name=NetD?_C New Net Name=NetL2_2
Change Net Name : Old Net Name=NetR?_2 New Net Name=NetR2_2
Added Pin To Net: NetName=NetCos1_2 Pin=Ros1-1
Added Net: Name=NetCos1_2
Added Pin To Net: NetName=NetIC2_1 Pin=IC2-1
Added Pin To Net: NetName=NetIC2_1 Pin=LED1-A
Added Pin To Net: NetName=NetIC2_1 Pin=R3-1
Added Net: Name=NetIC2_1
Added Pin To Net: NetName=NetLED2_C Pin=LED2-C
Added Pin To Net: NetName=NetLED2_C Pin=LED3-A
Added Net: Name=NetLED2_C
Added Member To Class: ClassName=led control circuit Member=Component C2 GRM32ER71J106KA12L
Added Member To Class: ClassName=led control circuit Member=Component D1 PMEG2020AEA,115
Added Member To Class: ClassName=led control circuit Member=Component D2 PMEG2020AEA,115
Added Member To Class: ClassName=led control circuit Member=Component D6 PMEG2020AEA,115
Added Member To Class: ClassName=led control circuit Member=Component L1 TFM252012ALVA4R7MTAA
Added Member To Class: ClassName=led control circuit Member=Component LED1 XPGDWT-B1-0000-00LE1
Added Member To Class: ClassName=led control circuit Member=Component LED2 XPGDWT-B1-0000-00LE1
Added Member To Class: ClassName=led control circuit Member=Component LED3 XPGDWT-B1-0000-00LE1
Added Member To Class: ClassName=led control circuit Member=Component R1 CRM2512-FX-R200ELF
Added Member To Class: ClassName=led control circuit Member=Component R2 180R 1% 0201(0603)
