Removed Pin From Net: NetName=GND Pin=GND1-1
Removed Pin From Net: NetName=GND Pin=R5-1
Removed Pin From Net: NetName=BAT_SCL Pin=SCL1-1
Removed Pin From Net: NetName=BAT_SDA Pin=SDA1-1
Removed Pin From Net: NetName=VPACK+ Pin=VPACK+1-1
Change Component Footprint: Designator=R5 Old Footprint=RESC0201(0603)_L New Footprint=RESC0201(0603)_M
Change Component Comment : Designator=GND1 Old Comment= New Comment=Testpoint Round 75mil
Change Component Comment : Designator=VPACK+1 Old Comment= New Comment=Testpoint Round 75mil
Change Component Comment : Designator=R5 Old Comment=180R 1% 0201(0603) New Comment=165R 1% 0201(0603)
Change Component Designator: OldDesignator=IC3 NewDesignator=IC4
Change Component Designator: OldDesignator=IC4 NewDesignator=IC3
Change component parameters: Designator = "R5"; Footprint = "RESC0201(0603)_M"; UniqueID = "\DEXPJRGK"
Change component parameters. Clean all parameters for all variants
Change component parameters (AddParameter): Name = "Case-EIA"; Value = "0201"; VariantName = "[No Variations]"
Change component parameters (AddParameter): Name = "Case-Metric"; Value = "0603"; VariantName = "[No Variations]"
Change component parameters (AddParameter): Name = "Power"; Value = "0.05 W"; VariantName = "[No Variations]"
Change component parameters (AddParameter): Name = "Technology"; Value = "SMT"; VariantName = "[No Variations]"
Change component parameters (AddParameter): Name = "Tolerance"; Value = "1 %"; VariantName = "[No Variations]"
Change component parameters (AddParameter): Name = "Value"; Value = "165.00 Ohm"; VariantName = "[No Variations]"
Added Component: Designator=R3(RESC0201(0603)_M)
Add component. Clean all parameters for all variants
Add component (AddParameter): Name = "Case-EIA"; Value = "0201"; VariantName = "[No Variations]"
Add component (AddParameter): Name = "Case-Metric"; Value = "0603"; VariantName = "[No Variations]"
Add component (AddParameter): Name = "Power"; Value = "0.05 W"; VariantName = "[No Variations]"
Add component (AddParameter): Name = "Technology"; Value = "SMT"; VariantName = "[No Variations]"
Add component (AddParameter): Name = "Tolerance"; Value = "5 %"; VariantName = "[No Variations]"
Add component (AddParameter): Name = "Value"; Value = "10000.00 Ohm"; VariantName = "[No Variations]"
Added Component: Designator=R4(RESC0201(0603)_M)
Add component. Clean all parameters for all variants
Add component (AddParameter): Name = "Case-EIA"; Value = "0201"; VariantName = "[No Variations]"
Add component (AddParameter): Name = "Case-Metric"; Value = "0603"; VariantName = "[No Variations]"
Add component (AddParameter): Name = "Power"; Value = "0.05 W"; VariantName = "[No Variations]"
Add component (AddParameter): Name = "Technology"; Value = "SMT"; VariantName = "[No Variations]"
Add component (AddParameter): Name = "Tolerance"; Value = "1 %"; VariantName = "[No Variations]"
Add component (AddParameter): Name = "Value"; Value = "165.00 Ohm"; VariantName = "[No Variations]"
Added Component: Designator=RST1(Testpoint Round 35mil)
Add component. Clean all parameters for all variants
Added Pin To Net: NetName=IRDIM Pin=IC3-2
Added Pin To Net: NetName=WDIM Pin=IC3-3
Added Pin To Net: NetName=GND Pin=IC3-4
Added Pin To Net: NetName=BAT_SDA Pin=IC3-7
Added Pin To Net: NetName=VCC Pin=IC3-8
Added Pin To Net: NetName=GND Pin=R3-2
Added Pin To Net: NetName=WDIM Pin=R4-1
Added Pin To Net: NetName=VCC Pin=R4-2
Added Pin To Net: NetName=IRDIM Pin=R5-1
Added Pin To Net: NetName=VCC Pin=R5-2
Change Net Name : Old Net Name=NetIC3_1 New Net Name=NetIC4_1
Added Pin To Net: NetName=NetIC3_1 Pin=IC3-1
Added Pin To Net: NetName=NetIC3_1 Pin=R3-1
Added Net: Name=NetIC3_1
Added Pin To Net: NetName=RST Pin=IC3-5
Added Net: Name=RST
Added Member To Class: ClassName=led control circuit Member=Component R3 10K 5% 0201(0603)
Added Member To Class: ClassName=led control circuit Member=Component R4 165R 1% 0201(0603)
Added Member To Class: ClassName=led control circuit Member=Component RST1 
