Removed Pin From Net: NetName=GND Pin=IC3-9
Removed Pin From Net: NetName=GND Pin=IC3-13
Removed Pin From Net: NetName=GND Pin=IC3-13
Removed Pin From Net: NetName=GND Pin=IC3-13
Removed Pin From Net: NetName=GND Pin=IC3-13
Removed Pin From Net: NetName=GND Pin=IC3-13
Removed Pin From Net: NetName=GND Pin=LED1-13
Removed Pin From Net: NetName=GND Pin=LED1-13
Removed Pin From Net: NetName=GND Pin=LED1-13
Removed Pin From Net: NetName=GND Pin=LED1-13
Removed Pin From Net: NetName=GND Pin=LED1-13
Removed Pin From Net: NetName=GND Pin=LED1-13
Removed Pin From Net: NetName=GND Pin=LED1-13
Removed Pin From Net: NetName=GND Pin=LED1-13
Removed Pin From Net: NetName=GND Pin=LED1-EP
Removed Pin From Net: NetName=GND Pin=LED2-13
Removed Pin From Net: NetName=GND Pin=LED2-13
Removed Pin From Net: NetName=GND Pin=LED2-13
Removed Pin From Net: NetName=GND Pin=LED2-13
Removed Pin From Net: NetName=GND Pin=LED2-13
Removed Pin From Net: NetName=GND Pin=LED2-13
Removed Pin From Net: NetName=GND Pin=LED2-13
Removed Pin From Net: NetName=GND Pin=LED2-13
Removed Pin From Net: NetName=GND Pin=LED2-EP
Removed Pin From Net: NetName=GND Pin=LED3-13
Removed Pin From Net: NetName=GND Pin=LED3-13
Removed Pin From Net: NetName=GND Pin=LED3-13
Removed Pin From Net: NetName=GND Pin=LED3-13
Removed Pin From Net: NetName=GND Pin=LED3-13
Removed Pin From Net: NetName=GND Pin=LED3-13
Removed Pin From Net: NetName=GND Pin=LED3-13
Removed Pin From Net: NetName=GND Pin=LED3-13
Removed Pin From Net: NetName=GND Pin=LED3-EP
Change Component DesignItemId : Designator=U1 Old DesignItemId=CMP-0388-00593-1 New DesignItemId=CMP-0388-00593-2
Change component parameters: Designator = "U1"; Footprint = "TI-RGY20-3050X2050TP_V"; UniqueID = "\DOWOGKBQ"
Change component parameters. Clean all parameters for all variants
Change component parameters (AddParameter): Name = "Code_JEDEC"; Value = "MO-241"; VariantName = "[No Variations]"
Change component parameters (AddParameter): Name = "ComponentLink1Description"; Value = "Manufacturer URL"; VariantName = "[No Variations]"
Change component parameters (AddParameter): Name = "ComponentLink1URL"; Value = "http://www.ti.com/"; VariantName = "[No Variations]"
Change component parameters (AddParameter): Name = "ComponentLink2Description"; Value = "Datasheet"; VariantName = "[No Variations]"
Change component parameters (AddParameter): Name = "ComponentLink2URL"; Value = "http://www.ti.com/general/docs/lit/getliterature.tsp?genericPartNumber=TLC59108&fileType=pdf"; VariantName = "[No Variations]"
Change component parameters (AddParameter): Name = "ComponentLink3Description"; Value = "Package Specification"; VariantName = "[No Variations]"
Change component parameters (AddParameter): Name = "ComponentLink3URL"; Value = "http://www.ti.com/litv/pdf/mpss024a"; VariantName = "[No Variations]"
Change component parameters (AddParameter): Name = "DatasheetVersion"; Value = "SLDS156A"; VariantName = "[No Variations]"
Change component parameters (AddParameter): Name = "Eco-Plan"; Value = "Green (RoHS & no Sb/Br)"; VariantName = "[No Variations]"
Change component parameters (AddParameter): Name = "Iout(Max)(A)"; Value = "0.12"; VariantName = "[No Variations]"
Change component parameters (AddParameter): Name = "Manufacturer"; Value = "Texas Instruments"; VariantName = "[No Variations]"
Change component parameters (AddParameter): Name = "Mounting Technology"; Value = "Surface Mount"; VariantName = "[No Variations]"
Change component parameters (AddParameter): Name = "PackageDescription"; Value = "20-Pin Plastic Flat Pack, Body 4.5 x 3.5 mm, Pitch 0.5 mm"; VariantName = "[No Variations]"
Change component parameters (AddParameter): Name = "PackageReference"; Value = "RGY0020A"; VariantName = "[No Variations]"
Change component parameters (AddParameter): Name = "PackageVersion"; Value = "4203539-4/I"; VariantName = "[No Variations]"
Change component parameters (AddParameter): Name = "PartNumber"; Value = "TLC59108IRGYR"; VariantName = "[No Variations]"
Change component parameters (AddParameter): Name = "SubFamily"; Value = "LED Driver"; VariantName = "[No Variations]"
Change component parameters (AddParameter): Name = "Vin(Max)(V)"; Value = "5.5"; VariantName = "[No Variations]"
Change component parameters (AddParameter): Name = "Vin(Min)(V)"; Value = "3"; VariantName = "[No Variations]"
Added Component: Designator=IC?(QFN40P400X400X80-29N)
Add component. Clean all parameters for all variants
Add component (AddParameter): Name = "Datasheet Link"; Value = "https://datasheets.maximintegrated.com/en/ds/MAX31790.pdf"; VariantName = "[No Variations]"
Add component (AddParameter): Name = "Height"; Value = "0.8mm"; VariantName = "[No Variations]"
Add component (AddParameter): Name = "Manufacturer_Name"; Value = "Maxim Integrated"; VariantName = "[No Variations]"
Add component (AddParameter): Name = "Manufacturer_Part_Number"; Value = "MAX31790ATI+"; VariantName = "[No Variations]"
Add component (AddParameter): Name = "Mouser Part Number"; Value = "700-MAX31790ATI+"; VariantName = "[No Variations]"
Add component (AddParameter): Name = "Mouser Price/Stock"; Value = "https://www.mouser.com/Search/Refine.aspx?Keyword=700-MAX31790ATI%2B"; VariantName = "[No Variations]"
Add component (AddParameter): Name = "RS Part Number"; Value = "1907422"; VariantName = "[No Variations]"
Add component (AddParameter): Name = "RS Price/Stock"; Value = "http://uk.rs-online.com/web/p/products/1907422"; VariantName = "[No Variations]"
Added Member To Class: ClassName=led control circuit Member=Component IC? MAX31790ATI+
Added Room: Name=led control circuit
