Added Component: Designator=LED1(*LED_XPGDWT-B1-0000-00LE1_XPGDWT-B1-0000-00LE1(Primary))
Add component. Clean all parameters for all variants
Add component (AddParameter): Name = "Availability"; Value = "Unavailable"; VariantName = "[No Variations]"
Add component (AddParameter): Name = "MF"; Value = "Cree"; VariantName = "[No Variations]"
Add component (AddParameter): Name = "MP"; Value = "XPGDWT-B1-0000-00LE1"; VariantName = "[No Variations]"
Add component (AddParameter): Name = "Package"; Value = "1414 Cree"; VariantName = "[No Variations]"
Add component (AddParameter): Name = "Price"; Value = "None"; VariantName = "[No Variations]"
Add component (AddParameter): Name = "SnapEDA_Link"; Value = "https://www.snapeda.com/parts/XPGDWT-B1-0000-00LE1/Cree/view-part/2751477/?ref=snap"; VariantName = "[No Variations]"
Add component (AddParameter): Name = "Value"; Value = ""; VariantName = "[No Variations]"
Added Component: Designator=LED2(*LED_XPGDWT-B1-0000-00LE1_XPGDWT-B1-0000-00LE1(Primary))
Add component. Clean all parameters for all variants
Add component (AddParameter): Name = "Availability"; Value = "Unavailable"; VariantName = "[No Variations]"
Add component (AddParameter): Name = "MF"; Value = "Cree"; VariantName = "[No Variations]"
Add component (AddParameter): Name = "MP"; Value = "XPGDWT-B1-0000-00LE1"; VariantName = "[No Variations]"
Add component (AddParameter): Name = "Package"; Value = "1414 Cree"; VariantName = "[No Variations]"
Add component (AddParameter): Name = "Price"; Value = "None"; VariantName = "[No Variations]"
Add component (AddParameter): Name = "SnapEDA_Link"; Value = "https://www.snapeda.com/parts/XPGDWT-B1-0000-00LE1/Cree/view-part/2751477/?ref=snap"; VariantName = "[No Variations]"
Add component (AddParameter): Name = "Value"; Value = ""; VariantName = "[No Variations]"
Added Component: Designator=LED3(*LED_XPGDWT-B1-0000-00LE1_XPGDWT-B1-0000-00LE1(Primary))
Add component. Clean all parameters for all variants
Add component (AddParameter): Name = "Availability"; Value = "Unavailable"; VariantName = "[No Variations]"
Add component (AddParameter): Name = "MF"; Value = "Cree"; VariantName = "[No Variations]"
Add component (AddParameter): Name = "MP"; Value = "XPGDWT-B1-0000-00LE1"; VariantName = "[No Variations]"
Add component (AddParameter): Name = "Package"; Value = "1414 Cree"; VariantName = "[No Variations]"
Add component (AddParameter): Name = "Price"; Value = "None"; VariantName = "[No Variations]"
Add component (AddParameter): Name = "SnapEDA_Link"; Value = "https://www.snapeda.com/parts/XPGDWT-B1-0000-00LE1/Cree/view-part/2751477/?ref=snap"; VariantName = "[No Variations]"
Add component (AddParameter): Name = "Value"; Value = ""; VariantName = "[No Variations]"
Added Pin To Net: NetName=NetIC4_1 Pin=LED1-A
Added Pin To Net: NetName=NetLED1_C Pin=LED1-C
Added Pin To Net: NetName=GND Pin=LED1-EP
Added Pin To Net: NetName=NetLED1_C Pin=LED2-A
Added Pin To Net: NetName=NetLED2_C Pin=LED2-C
Added Pin To Net: NetName=GND Pin=LED2-EP
Added Pin To Net: NetName=NetLED2_C Pin=LED3-A
Added Pin To Net: NetName=NetL2_2 Pin=LED3-C
Added Pin To Net: NetName=GND Pin=LED3-EP
Added Member To Class: ClassName=led control circuit Member=Component LED1 XPGDWT-B1-0000-00LE1
Added Member To Class: ClassName=led control circuit Member=Component LED2 XPGDWT-B1-0000-00LE1
Added Member To Class: ClassName=led control circuit Member=Component LED3 XPGDWT-B1-0000-00LE1
