Change Component Description : Designator=LED1 Old Description=LED Lighting Xlamp® XP-G3 White, Cool 6500K 2.73V 350mA 125° 1414 _3535 Metric_ New Description=
LED Lighting Xlamp® XP-G3 White, Cool 6500K 2.73V 350mA 125° 1414 _3535 Metric_

Change Component Description : Designator=LED2 Old Description=LED Lighting Xlamp® XP-G3 White, Cool 6500K 2.73V 350mA 125° 1414 _3535 Metric_ New Description=
LED Lighting Xlamp® XP-G3 White, Cool 6500K 2.73V 350mA 125° 1414 _3535 Metric_

Change Component Description : Designator=LED3 Old Description=LED Lighting Xlamp® XP-G3 White, Cool 6500K 2.73V 350mA 125° 1414 _3535 Metric_ New Description=
LED Lighting Xlamp® XP-G3 White, Cool 6500K 2.73V 350mA 125° 1414 _3535 Metric_

Added Component: Designator=GND(Testpoint Round 75mil)
Add component. Clean all parameters for all variants
Added Component: Designator=SCL(Testpoint Round 35mil)
Add component. Clean all parameters for all variants
Added Component: Designator=SDA(Testpoint Round 35mil)
Add component. Clean all parameters for all variants
Added Component: Designator=VPACK+(Testpoint Round 75mil)
Add component. Clean all parameters for all variants
Added Pin To Net: NetName=GND Pin=GND-1
Added Pin To Net: NetName=IRDIM Pin=IC2-4
Added Pin To Net: NetName=BAT_SCL Pin=SCL-1
Added Pin To Net: NetName=BAT_SDA Pin=SDA-1
Added Pin To Net: NetName=VPACK+ Pin=VPACK+-1
Change Net Name : Old Net Name=WDIM1 New Net Name=WDIM
Added Member To Class: ClassName=led control circuit Member=Component D2 PMEG2020AEA,115
Added Member To Class: ClassName=led control circuit Member=Component GND 
Added Member To Class: ClassName=led control circuit Member=Component R2 LCS0805-R20FT3
Added Member To Class: ClassName=led control circuit Member=Component R3 180R 1% 0201(0603)
Added Member To Class: ClassName=led control circuit Member=Component SCL 
Added Member To Class: ClassName=led control circuit Member=Component SDA 
Added Member To Class: ClassName=led control circuit Member=Component VPACK+ 
