Change Component Designator: Old Designator=IC3 New Designator=IC4
Change Component Designator: Old Designator=IC4 New Designator=IC3
Change Component Designator: Old Designator=R? New Designator=R3
Change Component Designator: Old Designator=R? New Designator=R4
Change Component Designator: Old Designator=R? New Designator=R5
Change Component Designator: Old Designator=RST New Designator=RST1
Change Component Designator: Old Designator=SCL New Designator=SCL1
Change Component Designator: Old Designator=SDA New Designator=SDA1
